…
One name in this list genuinely surprised me was **Daleyza**. I’d never
even heard this name before, and it doesn’t follow the same pattern as
most of the other surges on the list because there’s basically zero
history before it suddenly shows up, rather than slowly building up like
a normal “rising” name. That jump from nowhere is what had me running to
google and it turns out Mexican-American singer Larry Hernandez named
his daughter Daleyza in 2010, which seems to line up with the name
appearing out of nowhere shortly after. He also had a reality show
called LarryMania - the more you know…

This prompted me to check it out:

    ## # A tibble: 35 × 2
    ##    State Total
    ##    <chr> <dbl>
    ##  1 CA      505
    ##  2 TX      429
    ##  3 AZ      117
    ##  4 IL       90
    ##  5 CO       72
    ##  6 WA       68
    ##  7 NC       50
    ##  8 KS       42
    ##  9 GA       41
    ## 10 OR       41
    ## # ℹ 25 more rows
…
